{
  "count": 50,
  "next": "https://safe-transaction-mainnet.safe.global/api/v1/safes/0xcd2E72aEBe2A203b84f46DEEC948E6465dB51c75/multisig-transactions/?limit=2&offset=2",
  "previous": null,
  "results": [
    {
      "safe": "0xcd2E72aEBe2A203b84f46DEEC948E6465dB51c75",
      "to": "0x40A2aCCbd92BCA938b02010E17A5b8929b49130D",
      "value": "0",
      "data": "0x8d80ff0a000000000000000000000000000000000000000000000000000000000000002000000000000000000000000000000000000000000000000000000000000000ce00cd2e72aebe2a203b84f46deec948e6465db51c75000000000000000000000000000000000000000000000000000000000000000000000000000000000000000000000000000000000000000000000000000000247de7edef000000000000000000000000d9db270c1b5e3bd161e8c8503c55ceabee70955200cd2e72aebe2a203b84f46deec948e6465db51c7500000000000000000000000000000000000000000000000000000000000000000000000000000000000000000000000000000000000000000000000000000000000000000000000000000000000000000000",
      "operation": 1,
      "gasToken": "0x0000000000000000000000000000000000000000",
      "safeTxGas": 48700,
      "baseGas": 0,
      "gasPrice": "0",
      "refundReceiver": "0x0000000000000000000000000000000000000000",
      "nonce": 49,
      "executionDate": "2024-04-23T02:38:11Z",
      "submissionDate": "2024-04-23T02:38:01.015676Z",
      "modified": "2024-04-23T02:38:11Z",
      "blockNumber": 19715160,
      "transactionHash": "0xceeacc3007949920a43a3785e650e0bb86bdd5c20ccb2f6704d25839c81bf306",
      "safeTxHash": "0xba192fd48af510cf6065b4997a7c4e5f9f320c82bd6951cd32396d714da4b4cf",
      "proposer": "0xA1b02d8c67b0FDCF4E379855868DeB470E169cfB",
      "executor": "0xA1b02d8c67b0FDCF4E379855868DeB470E169cfB",
      "isExecuted": true,
      "isSuccessful": true,
      "ethGasPrice": "8709486175",
      "maxFeePerGas": "9000000000",
      "maxPriorityFeePerGas": "3086913705",
      "gasUsed": 58769,
      "fee": "511847793018575",
      "origin": "{}",
      "dataDecoded": {
        "method": "multiSend",
        "parameters": [
          {
            "name": "transactions",
            "type": "bytes",
            "value": "0x00cd2e72aebe2a203b84f46deec948e6465db51c75000000000000000000000000000000000000000000000000000000000000000000000000000000000000000000000000000000000000000000000000000000247de7edef000000000000000000000000d9db270c1b5e3bd161e8c8503c55ceabee70955200cd2e72aebe2a203b84f46deec948e6465db51c7500000000000000000000000000000000000000000000000000000000000000000000000000000000000000000000000000000000000000000000000000000000",
            "valueDecoded": [
              {
                "operation": 0,
                "to": "0xcd2E72aEBe2A203b84f46DEEC948E6465dB51c75",
                "value": "0",
                "data": "0x7de7edef000000000000000000000000d9db270c1b5e3bd161e8c8503c55ceabee709552",
                "dataDecoded": {
                  "method": "changeMasterCopy",
                  "parameters": [
                    {
                      "name": "_masterCopy",
                      "type": "address",
                      "value": "0xd9Db270c1B5E3Bd161E8c8503c55cEABeE709552"
                    }
                  ]
                }
              },
              {
                "operation": 0,
                "to": "0xcd2E72aEBe2A203b84f46DEEC948E6465dB51c75",
                "value": "0",
                "data": null,
                "dataDecoded": null
              }
            ]
          }
        ]
      },
      "confirmationsRequired": 1,
      "confirmations": [
        {
          "owner": "0xA1b02d8c67b0FDCF4E379855868DeB470E169cfB",
          "submissionDate": "2024-04-23T02:38:11Z",
          "transactionHash": null,
          "signature": "0x000000000000000000000000a1b02d8c67b0fdcf4e379855868deb470e169cfb000000000000000000000000000000000000000000000000000000000000000001",
          "signatureType": "APPROVED_HASH"
        }
      ],
      "trusted": true,
      "signatures": "0x000000000000000000000000a1b02d8c67b0fdcf4e379855868deb470e169cfb000000000000000000000000000000000000000000000000000000000000000001"
    },
    {
      "safe": "0xcd2E72aEBe2A203b84f46DEEC948E6465dB51c75",
      "to": "0xA0b937D5c8E32a80E3a8ed4227CD020221544ee6",
      "value": "0",
      "data": "0x0087b83f172fb115f1aa2601f3a45ccdc47cacc02ed0ffa48d07d22d201f548bf49fed23000000000000000000000000cd2e72aebe2a203b84f46deec948e6465db51c7500000000000000000000000000000000ffffffffffffffffffffffffffffffff",
      "operation": 0,
      "gasToken": "0x0000000000000000000000000000000000000000",
      "safeTxGas": 133927,
      "baseGas": 0,
      "gasPrice": "0",
      "refundReceiver": "0x0000000000000000000000000000000000000000",
      "nonce": 48,
      "executionDate": "2024-04-23T02:36:47Z",
      "submissionDate": "2024-04-23T02:36:39.804393Z",
      "modified": "2024-04-23T02:36:47Z",
      "blockNumber": 19715153,
      "transactionHash": "0x3e8d89540a749fc0cc81709004a9047e6199dcec7b4d99d2f660a1d26e6e089c",
      "safeTxHash": "0xf6846a40fceb0650ed84f1fec8cea5fd18ca9fd14a6bcbf1a7c18c831f47e709",
      "proposer": "0xA1b02d8c67b0FDCF4E379855868DeB470E169cfB",
      "executor": "0xA1b02d8c67b0FDCF4E379855868DeB470E169cfB",
      "isExecuted": true,
      "isSuccessful": true,
      "ethGasPrice": "7000000000",
      "maxFeePerGas": "7000000000",
      "maxPriorityFeePerGas": "1398475847",
      "gasUsed": 123205,
      "fee": "862435000000000",
      "origin": "{\"url\": \"https://governance.safe.global\", \"name\": \"Safe{DAO} Governance\"}",
      "dataDecoded": {
        "method": "claimVestedTokensViaModule",
        "parameters": [
          {
            "name": "vestingId",
            "type": "bytes32",
            "value": "0x172fb115f1aa2601f3a45ccdc47cacc02ed0ffa48d07d22d201f548bf49fed23"
          },
          {
            "name": "beneficiary",
            "type": "address",
            "value": "0xcd2E72aEBe2A203b84f46DEEC948E6465dB51c75"
          },
          {
            "name": "tokensToClaim",
            "type": "uint128",
            "value": "340282366920938463463374607431768211455"
          }
        ]
      },
      "confirmationsRequired": 1,
      "confirmations": [
        {
          "owner": "0xA1b02d8c67b0FDCF4E379855868DeB470E169cfB",
          "submissionDate": "2024-04-23T02:36:47Z",
          "transactionHash": null,
          "signature": "0x000000000000000000000000a1b02d8c67b0fdcf4e379855868deb470e169cfb000000000000000000000000000000000000000000000000000000000000000001",
          "signatureType": "APPROVED_HASH"
        }
      ],
      "trusted": true,
      "signatures": "0x000000000000000000000000a1b02d8c67b0fdcf4e379855868deb470e169cfb000000000000000000000000000000000000000000000000000000000000000001"
    }
  ],
  "countUniqueNonce": 50
}