{
  "count": 77,
  "next": "https://safe-transaction-mainnet.safe.global/api/v1/safes/0xcd2E72aEBe2A203b84f46DEEC948E6465dB51c75/transfers/?limit=2&offset=2",
  "previous": null,
  "results": [
    {
      "type": "ERC20_TRANSFER",
      "executionDate": "2024-04-23T02:36:47Z",
      "blockNumber": 19715153,
      "transactionHash": "0x3e8d89540a749fc0cc81709004a9047e6199dcec7b4d99d2f660a1d26e6e089c",
      "to": "0xcd2E72aEBe2A203b84f46DEEC948E6465dB51c75",
      "value": "381767577609232226683",
      "tokenId": null,
      "tokenAddress": "0x5aFE3855358E112B5647B952709E6165e1c1eEEe",
      "transferId": "e3e8d89540a749fc0cc81709004a9047e6199dcec7b4d99d2f660a1d26e6e089c108",
      "tokenInfo": {
        "type": "ERC20",
        "address": "0x5aFE3855358E112B5647B952709E6165e1c1eEEe",
        "name": "Safe Token",
        "symbol": "SAFE",
        "decimals": 18,
        "logoUri": "https://safe-transaction-assets.safe.global/tokens/logos/0x5aFE3855358E112B5647B952709E6165e1c1eEEe.png",
        "trusted": true
      },
      "from": "0xA0b937D5c8E32a80E3a8ed4227CD020221544ee6"
    },
    {
      "type": "ERC20_TRANSFER",
      "executionDate": "2023-08-24T13:07:47Z",
      "blockNumber": 17984759,
      "transactionHash": "0xcde6f0137885841f54da7dbc370e2e60940c4574adc6ed4d8a606eba1f56438b",
      "to": "0xcd2E72aEBe2A203b84f46DEEC948E6465dB51c75",
      "value": "1000000000000000000",
      "tokenId": null,
      "tokenAddress": "0x111111111117dC0aa78b770fA6A738034120C302",
      "transferId": "ecde6f0137885841f54da7dbc370e2e60940c4574adc6ed4d8a606eba1f56438b191",
      "tokenInfo": {
        "type": "ERC20",
        "address": "0x111111111117dC0aa78b770fA6A738034120C302",
        "name": "1INCH Token",
        "symbol": "1INCH",
        "decimals": 18,
        "logoUri": "https://safe-transaction-assets.safe.global/tokens/logos/0x111111111117dC0aa78b770fA6A738034120C302.png",
        "trusted": true
      },
      "from": "0xe9ba60EefdbA996a66A7F5415dDa83573a70c492"
    }
  ]
}