{
  "count": 1846,
  "next": "https://safe-transaction-sepolia.safe.global/api/v1/tokens/?limit=10&offset=10",
  "previous": null,
  "results": [
    {
      "type": "ERC20",
      "address": "0x687e43D0aB3248bDfebFE3E8f9F1AB2B9FcE982d",
      "name": "0x5555.com",
      "symbol": "0x5555.com",
      "decimals": 18,
      "logoUri": "https://safe-transaction-assets.safe.global/tokens/logos/0x687e43D0aB3248bDfebFE3E8f9F1AB2B9FcE982d.png",
      "trusted": false
    }
    // ...
  ]
}
